project_name,bug_id,file_path,class_name
Chart,1,source/org/jfree/chart/renderer/category/AbstractCategoryItemRenderer.java,org.jfree.chart.renderer.category.AbstractCategoryItemRenderer
Chart,2,source/org/jfree/data/general/DatasetUtilities.java,org.jfree.data.general.DatasetUtilities
Chart,3,source/org/jfree/data/time/TimeSeries.java,org.jfree.data.time.TimeSeries
Chart,4,source/org/jfree/chart/plot/XYPlot.java,org.jfree.chart.plot.XYPlot
Chart,5,source/org/jfree/data/xy/XYSeries.java,org.jfree.data.xy.XYSeries
Chart,6,source/org/jfree/chart/util/ShapeList.java,org.jfree.chart.util.ShapeList
Chart,7,source/org/jfree/data/time/TimePeriodValues.java,org.jfree.data.time.TimePeriodValues
Chart,8,source/org/jfree/data/time/Week.java,org.jfree.data.time.Week
Chart,9,source/org/jfree/data/time/TimeSeries.java,org.jfree.data.time.TimeSeries
Chart,10,source/org/jfree/chart/imagemap/StandardToolTipTagFragmentGenerator.java,org.jfree.chart.imagemap.StandardToolTipTagFragmentGenerator
Chart,11,source/org/jfree/chart/util/ShapeUtilities.java,org.jfree.chart.util.ShapeUtilities
Chart,12,source/org/jfree/chart/plot/MultiplePiePlot.java,org.jfree.chart.plot.MultiplePiePlot
Chart,13,source/org/jfree/chart/block/BorderArrangement.java,org.jfree.chart.block.BorderArrangement
Chart,14,source/org/jfree/chart/plot/XYPlot.java,org.jfree.chart.plot.XYPlot
Chart,14,source/org/jfree/chart/plot/CategoryPlot.java,org.jfree.chart.plot.CategoryPlot
Chart,15,source/org/jfree/chart/plot/PiePlot.java,org.jfree.chart.plot.PiePlot
Chart,16,source/org/jfree/data/category/DefaultIntervalCategoryDataset.java,org.jfree.data.category.DefaultIntervalCategoryDataset
Chart,17,source/org/jfree/data/time/TimeSeries.java,org.jfree.data.time.TimeSeries
Chart,18,source/org/jfree/data/DefaultKeyedValues.java,org.jfree.data.DefaultKeyedValues
Chart,18,source/org/jfree/data/DefaultKeyedValues2D.java,org.jfree.data.DefaultKeyedValues2D
Chart,19,source/org/jfree/chart/plot/CategoryPlot.java,org.jfree.chart.plot.CategoryPlot
Chart,20,source/org/jfree/chart/plot/ValueMarker.java,org.jfree.chart.plot.ValueMarker
Chart,21,source/org/jfree/data/statistics/DefaultBoxAndWhiskerCategoryDataset.java,org.jfree.data.statistics.DefaultBoxAndWhiskerCategoryDataset
Chart,22,source/org/jfree/data/KeyedObjects2D.java,org.jfree.data.KeyedObjects2D
Chart,23,source/org/jfree/chart/renderer/category/MinMaxCategoryRenderer.java,org.jfree.chart.renderer.category.MinMaxCategoryRenderer
Chart,24,source/org/jfree/chart/renderer/GrayPaintScale.java,org.jfree.chart.renderer.GrayPaintScale
Chart,25,source/org/jfree/chart/renderer/category/StatisticalBarRenderer.java,org.jfree.chart.renderer.category.StatisticalBarRenderer
Chart,26,source/org/jfree/chart/axis/Axis.java,org.jfree.chart.axis.Axis
Closure,1,src/com/google/javascript/jscomp/RemoveUnusedVars.java,com.google.javascript.jscomp.RemoveUnusedVars
Closure,2,src/com/google/javascript/jscomp/TypeCheck.java,com.google.javascript.jscomp.TypeCheck
Closure,3,src/com/google/javascript/jscomp/FlowSensitiveInlineVariables.java,com.google.javascript.jscomp.FlowSensitiveInlineVariables
Closure,4,src/com/google/javascript/rhino/jstype/NamedType.java,com.google.javascript.rhino.jstype.NamedType
Closure,5,src/com/google/javascript/jscomp/InlineObjectLiterals.java,com.google.javascript.jscomp.InlineObjectLiterals
Closure,6,src/com/google/javascript/jscomp/TypeValidator.java,com.google.javascript.jscomp.TypeValidator
Closure,7,src/com/google/javascript/jscomp/type/ChainableReverseAbstractInterpreter.java,com.google.javascript.jscomp.type.ChainableReverseAbstractInterpreter
Closure,8,src/com/google/javascript/jscomp/CollapseVariableDeclarations.java,com.google.javascript.jscomp.CollapseVariableDeclarations
Closure,9,src/com/google/javascript/jscomp/ProcessCommonJSModules.java,com.google.javascript.jscomp.ProcessCommonJSModules
Closure,10,src/com/google/javascript/jscomp/NodeUtil.java,com.google.javascript.jscomp.NodeUtil
Closure,11,src/com/google/javascript/jscomp/TypeCheck.java,com.google.javascript.jscomp.TypeCheck
Closure,12,src/com/google/javascript/jscomp/MaybeReachingVariableUse.java,com.google.javascript.jscomp.MaybeReachingVariableUse
Closure,13,src/com/google/javascript/jscomp/PeepholeOptimizationsPass.java,com.google.javascript.jscomp.PeepholeOptimizationsPass
Closure,14,src/com/google/javascript/jscomp/ControlFlowAnalysis.java,com.google.javascript.jscomp.ControlFlowAnalysis
Closure,15,src/com/google/javascript/jscomp/FlowSensitiveInlineVariables.java,com.google.javascript.jscomp.FlowSensitiveInlineVariables
Closure,16,src/com/google/javascript/jscomp/ScopedAliases.java,com.google.javascript.jscomp.ScopedAliases
Closure,17,src/com/google/javascript/jscomp/TypedScopeCreator.java,com.google.javascript.jscomp.TypedScopeCreator
Closure,18,src/com/google/javascript/jscomp/Compiler.java,com.google.javascript.jscomp.Compiler
Closure,19,src/com/google/javascript/jscomp/type/ChainableReverseAbstractInterpreter.java,com.google.javascript.jscomp.type.ChainableReverseAbstractInterpreter
Closure,20,src/com/google/javascript/jscomp/PeepholeSubstituteAlternateSyntax.java,com.google.javascript.jscomp.PeepholeSubstituteAlternateSyntax
Closure,21,src/com/google/javascript/jscomp/CheckSideEffects.java,com.google.javascript.jscomp.CheckSideEffects
Closure,22,src/com/google/javascript/jscomp/CheckSideEffects.java,com.google.javascript.jscomp.CheckSideEffects
Closure,23,src/com/google/javascript/jscomp/PeepholeFoldConstants.java,com.google.javascript.jscomp.PeepholeFoldConstants
Closure,24,src/com/google/javascript/jscomp/ScopedAliases.java,com.google.javascript.jscomp.ScopedAliases
Closure,25,src/com/google/javascript/jscomp/TypeInference.java,com.google.javascript.jscomp.TypeInference
Closure,26,src/com/google/javascript/jscomp/ProcessCommonJSModules.java,com.google.javascript.jscomp.ProcessCommonJSModules
Closure,27,src/com/google/javascript/rhino/IR.java,com.google.javascript.rhino.IR
Closure,28,src/com/google/javascript/jscomp/InlineCostEstimator.java,com.google.javascript.jscomp.InlineCostEstimator
Closure,29,src/com/google/javascript/jscomp/InlineObjectLiterals.java,com.google.javascript.jscomp.InlineObjectLiterals
Closure,30,src/com/google/javascript/jscomp/MustBeReachingVariableDef.java,com.google.javascript.jscomp.MustBeReachingVariableDef
Closure,30,src/com/google/javascript/jscomp/FlowSensitiveInlineVariables.java,com.google.javascript.jscomp.FlowSensitiveInlineVariables
Closure,31,src/com/google/javascript/jscomp/Compiler.java,com.google.javascript.jscomp.Compiler
Closure,32,src/com/google/javascript/jscomp/parsing/JsDocInfoParser.java,com.google.javascript.jscomp.parsing.JsDocInfoParser
Closure,33,src/com/google/javascript/rhino/jstype/PrototypeObjectType.java,com.google.javascript.rhino.jstype.PrototypeObjectType
Closure,34,src/com/google/javascript/jscomp/CodeGenerator.java,com.google.javascript.jscomp.CodeGenerator
Closure,34,src/com/google/javascript/jscomp/CodePrinter.java,com.google.javascript.jscomp.CodePrinter
Closure,35,src/com/google/javascript/jscomp/TypeInference.java,com.google.javascript.jscomp.TypeInference
Closure,36,src/com/google/javascript/jscomp/InlineVariables.java,com.google.javascript.jscomp.InlineVariables
Closure,37,src/com/google/javascript/jscomp/parsing/IRFactory.java,com.google.javascript.jscomp.parsing.IRFactory
Closure,37,src/com/google/javascript/jscomp/NodeTraversal.java,com.google.javascript.jscomp.NodeTraversal
Closure,38,src/com/google/javascript/jscomp/CodeConsumer.java,com.google.javascript.jscomp.CodeConsumer
Closure,39,src/com/google/javascript/rhino/jstype/PrototypeObjectType.java,com.google.javascript.rhino.jstype.PrototypeObjectType
Closure,40,src/com/google/javascript/jscomp/NameAnalyzer.java,com.google.javascript.jscomp.NameAnalyzer
Closure,41,src/com/google/javascript/jscomp/FunctionTypeBuilder.java,com.google.javascript.jscomp.FunctionTypeBuilder
Closure,42,src/com/google/javascript/jscomp/parsing/IRFactory.java,com.google.javascript.jscomp.parsing.IRFactory
Closure,43,src/com/google/javascript/jscomp/TypedScopeCreator.java,com.google.javascript.jscomp.TypedScopeCreator
Closure,44,src/com/google/javascript/jscomp/CodeConsumer.java,com.google.javascript.jscomp.CodeConsumer
Closure,45,src/com/google/javascript/jscomp/RemoveUnusedVars.java,com.google.javascript.jscomp.RemoveUnusedVars
Closure,46,src/com/google/javascript/rhino/jstype/RecordType.java,com.google.javascript.rhino.jstype.RecordType
Closure,47,src/com/google/javascript/jscomp/SourceMap.java,com.google.javascript.jscomp.SourceMap
Closure,47,src/com/google/debugging/sourcemap/SourceMapConsumerV3.java,com.google.debugging.sourcemap.SourceMapConsumerV3
Closure,48,src/com/google/javascript/jscomp/TypedScopeCreator.java,com.google.javascript.jscomp.TypedScopeCreator
Closure,49,src/com/google/javascript/jscomp/MakeDeclaredNamesUnique.java,com.google.javascript.jscomp.MakeDeclaredNamesUnique
Closure,50,src/com/google/javascript/jscomp/PeepholeReplaceKnownMethods.java,com.google.javascript.jscomp.PeepholeReplaceKnownMethods
Closure,51,src/com/google/javascript/jscomp/CodeConsumer.java,com.google.javascript.jscomp.CodeConsumer
Closure,52,src/com/google/javascript/jscomp/CodeGenerator.java,com.google.javascript.jscomp.CodeGenerator
Closure,53,src/com/google/javascript/jscomp/InlineObjectLiterals.java,com.google.javascript.jscomp.InlineObjectLiterals
Closure,54,src/com/google/javascript/jscomp/TypedScopeCreator.java,com.google.javascript.jscomp.TypedScopeCreator
Closure,54,src/com/google/javascript/rhino/jstype/FunctionType.java,com.google.javascript.rhino.jstype.FunctionType
Closure,55,src/com/google/javascript/jscomp/FunctionRewriter.java,com.google.javascript.jscomp.FunctionRewriter
Closure,56,src/com/google/javascript/jscomp/SourceFile.java,com.google.javascript.jscomp.SourceFile
Closure,57,src/com/google/javascript/jscomp/ClosureCodingConvention.java,com.google.javascript.jscomp.ClosureCodingConvention
Closure,58,src/com/google/javascript/jscomp/LiveVariablesAnalysis.java,com.google.javascript.jscomp.LiveVariablesAnalysis
Closure,59,src/com/google/javascript/jscomp/Compiler.java,com.google.javascript.jscomp.Compiler
Closure,60,src/com/google/javascript/jscomp/NodeUtil.java,com.google.javascript.jscomp.NodeUtil
Closure,61,src/com/google/javascript/jscomp/NodeUtil.java,com.google.javascript.jscomp.NodeUtil
Closure,62,src/com/google/javascript/jscomp/LightweightMessageFormatter.java,com.google.javascript.jscomp.LightweightMessageFormatter
Closure,63,src/com/google/javascript/jscomp/LightweightMessageFormatter.java,com.google.javascript.jscomp.LightweightMessageFormatter
Closure,64,src/com/google/javascript/jscomp/Compiler.java,com.google.javascript.jscomp.Compiler
Closure,65,src/com/google/javascript/jscomp/CodeGenerator.java,com.google.javascript.jscomp.CodeGenerator
Closure,66,src/com/google/javascript/jscomp/TypeCheck.java,com.google.javascript.jscomp.TypeCheck
Closure,67,src/com/google/javascript/jscomp/AnalyzePrototypeProperties.java,com.google.javascript.jscomp.AnalyzePrototypeProperties
Closure,68,src/com/google/javascript/jscomp/parsing/JsDocInfoParser.java,com.google.javascript.jscomp.parsing.JsDocInfoParser
Closure,69,src/com/google/javascript/jscomp/TypeCheck.java,com.google.javascript.jscomp.TypeCheck
Closure,70,src/com/google/javascript/jscomp/TypedScopeCreator.java,com.google.javascript.jscomp.TypedScopeCreator
Closure,71,src/com/google/javascript/jscomp/CheckAccessControls.java,com.google.javascript.jscomp.CheckAccessControls
Closure,72,src/com/google/javascript/jscomp/FunctionToBlockMutator.java,com.google.javascript.jscomp.FunctionToBlockMutator
Closure,72,src/com/google/javascript/jscomp/RenameLabels.java,com.google.javascript.jscomp.RenameLabels
Closure,73,src/com/google/javascript/jscomp/CodeGenerator.java,com.google.javascript.jscomp.CodeGenerator
Closure,74,src/com/google/javascript/jscomp/PeepholeFoldConstants.java,com.google.javascript.jscomp.PeepholeFoldConstants
Closure,75,src/com/google/javascript/jscomp/NodeUtil.java,com.google.javascript.jscomp.NodeUtil
Closure,76,src/com/google/javascript/jscomp/DeadAssignmentsElimination.java,com.google.javascript.jscomp.DeadAssignmentsElimination
Closure,77,src/com/google/javascript/jscomp/CodeGenerator.java,com.google.javascript.jscomp.CodeGenerator
Closure,78,src/com/google/javascript/jscomp/PeepholeFoldConstants.java,com.google.javascript.jscomp.PeepholeFoldConstants
Closure,79,src/com/google/javascript/jscomp/VarCheck.java,com.google.javascript.jscomp.VarCheck
Closure,79,src/com/google/javascript/jscomp/Normalize.java,com.google.javascript.jscomp.Normalize
Closure,80,src/com/google/javascript/jscomp/NodeUtil.java,com.google.javascript.jscomp.NodeUtil
Closure,81,src/com/google/javascript/jscomp/parsing/IRFactory.java,com.google.javascript.jscomp.parsing.IRFactory
Closure,82,src/com/google/javascript/rhino/jstype/JSType.java,com.google.javascript.rhino.jstype.JSType
Closure,83,src/com/google/javascript/jscomp/CommandLineRunner.java,com.google.javascript.jscomp.CommandLineRunner
Closure,84,src/com/google/javascript/jscomp/parsing/IRFactory.java,com.google.javascript.jscomp.parsing.IRFactory
Closure,85,src/com/google/javascript/jscomp/UnreachableCodeElimination.java,com.google.javascript.jscomp.UnreachableCodeElimination
Closure,86,src/com/google/javascript/jscomp/NodeUtil.java,com.google.javascript.jscomp.NodeUtil
Closure,87,src/com/google/javascript/jscomp/PeepholeSubstituteAlternateSyntax.java,com.google.javascript.jscomp.PeepholeSubstituteAlternateSyntax
Closure,88,src/com/google/javascript/jscomp/DeadAssignmentsElimination.java,com.google.javascript.jscomp.DeadAssignmentsElimination
Closure,89,src/com/google/javascript/jscomp/GlobalNamespace.java,com.google.javascript.jscomp.GlobalNamespace
Closure,89,src/com/google/javascript/jscomp/CollapseProperties.java,com.google.javascript.jscomp.CollapseProperties
Closure,90,src/com/google/javascript/rhino/jstype/FunctionType.java,com.google.javascript.rhino.jstype.FunctionType
Closure,90,src/com/google/javascript/jscomp/FunctionTypeBuilder.java,com.google.javascript.jscomp.FunctionTypeBuilder
Closure,91,src/com/google/javascript/jscomp/CheckGlobalThis.java,com.google.javascript.jscomp.CheckGlobalThis
Closure,92,src/com/google/javascript/jscomp/ProcessClosurePrimitives.java,com.google.javascript.jscomp.ProcessClosurePrimitives
Closure,93,src/com/google/javascript/jscomp/ProcessClosurePrimitives.java,com.google.javascript.jscomp.ProcessClosurePrimitives
Closure,94,src/com/google/javascript/jscomp/NodeUtil.java,com.google.javascript.jscomp.NodeUtil
Closure,95,src/com/google/javascript/jscomp/TypedScopeCreator.java,com.google.javascript.jscomp.TypedScopeCreator
Closure,96,src/com/google/javascript/jscomp/TypeCheck.java,com.google.javascript.jscomp.TypeCheck
Closure,97,src/com/google/javascript/jscomp/PeepholeFoldConstants.java,com.google.javascript.jscomp.PeepholeFoldConstants
Closure,98,src/com/google/javascript/jscomp/ReferenceCollectingCallback.java,com.google.javascript.jscomp.ReferenceCollectingCallback
Closure,99,src/com/google/javascript/jscomp/CheckGlobalThis.java,com.google.javascript.jscomp.CheckGlobalThis
Closure,100,src/com/google/javascript/jscomp/CheckGlobalThis.java,com.google.javascript.jscomp.CheckGlobalThis
Closure,101,src/com/google/javascript/jscomp/CommandLineRunner.java,com.google.javascript.jscomp.CommandLineRunner
Closure,102,src/com/google/javascript/jscomp/Normalize.java,com.google.javascript.jscomp.Normalize
Closure,103,src/com/google/javascript/jscomp/DisambiguateProperties.java,com.google.javascript.jscomp.DisambiguateProperties
Closure,103,src/com/google/javascript/jscomp/ControlFlowAnalysis.java,com.google.javascript.jscomp.ControlFlowAnalysis
Closure,104,src/com/google/javascript/rhino/jstype/UnionType.java,com.google.javascript.rhino.jstype.UnionType
Closure,105,src/com/google/javascript/jscomp/FoldConstants.java,com.google.javascript.jscomp.FoldConstants
Closure,106,src/com/google/javascript/rhino/JSDocInfoBuilder.java,com.google.javascript.rhino.JSDocInfoBuilder
Closure,106,src/com/google/javascript/jscomp/GlobalNamespace.java,com.google.javascript.jscomp.GlobalNamespace
Closure,107,src/com/google/javascript/jscomp/CommandLineRunner.java,com.google.javascript.jscomp.CommandLineRunner
Closure,108,src/com/google/javascript/jscomp/ScopedAliases.java,com.google.javascript.jscomp.ScopedAliases
Closure,109,src/com/google/javascript/jscomp/parsing/JsDocInfoParser.java,com.google.javascript.jscomp.parsing.JsDocInfoParser
Closure,110,src/com/google/javascript/rhino/Node.java,com.google.javascript.rhino.Node
Closure,110,src/com/google/javascript/jscomp/ScopedAliases.java,com.google.javascript.jscomp.ScopedAliases
Closure,111,src/com/google/javascript/jscomp/type/ClosureReverseAbstractInterpreter.java,com.google.javascript.jscomp.type.ClosureReverseAbstractInterpreter
Closure,112,src/com/google/javascript/jscomp/TypeInference.java,com.google.javascript.jscomp.TypeInference
Closure,113,src/com/google/javascript/jscomp/ProcessClosurePrimitives.java,com.google.javascript.jscomp.ProcessClosurePrimitives
Closure,114,src/com/google/javascript/jscomp/NameAnalyzer.java,com.google.javascript.jscomp.NameAnalyzer
Closure,115,src/com/google/javascript/jscomp/FunctionInjector.java,com.google.javascript.jscomp.FunctionInjector
Closure,116,src/com/google/javascript/jscomp/FunctionInjector.java,com.google.javascript.jscomp.FunctionInjector
Closure,117,src/com/google/javascript/jscomp/TypeValidator.java,com.google.javascript.jscomp.TypeValidator
Closure,118,src/com/google/javascript/jscomp/DisambiguateProperties.java,com.google.javascript.jscomp.DisambiguateProperties
Closure,119,src/com/google/javascript/jscomp/GlobalNamespace.java,com.google.javascript.jscomp.GlobalNamespace
Closure,120,src/com/google/javascript/jscomp/ReferenceCollectingCallback.java,com.google.javascript.jscomp.ReferenceCollectingCallback
Closure,121,src/com/google/javascript/jscomp/InlineVariables.java,com.google.javascript.jscomp.InlineVariables
Closure,122,src/com/google/javascript/jscomp/parsing/IRFactory.java,com.google.javascript.jscomp.parsing.IRFactory
Closure,123,src/com/google/javascript/jscomp/CodeGenerator.java,com.google.javascript.jscomp.CodeGenerator
Closure,124,src/com/google/javascript/jscomp/ExploitAssigns.java,com.google.javascript.jscomp.ExploitAssigns
Closure,125,src/com/google/javascript/jscomp/TypeCheck.java,com.google.javascript.jscomp.TypeCheck
Closure,126,src/com/google/javascript/jscomp/MinimizeExitPoints.java,com.google.javascript.jscomp.MinimizeExitPoints
Closure,127,src/com/google/javascript/jscomp/UnreachableCodeElimination.java,com.google.javascript.jscomp.UnreachableCodeElimination
Closure,128,src/com/google/javascript/jscomp/CodeGenerator.java,com.google.javascript.jscomp.CodeGenerator
Closure,129,src/com/google/javascript/jscomp/PrepareAst.java,com.google.javascript.jscomp.PrepareAst
Closure,130,src/com/google/javascript/jscomp/CollapseProperties.java,com.google.javascript.jscomp.CollapseProperties
Closure,131,src/com/google/javascript/rhino/TokenStream.java,com.google.javascript.rhino.TokenStream
Closure,132,src/com/google/javascript/jscomp/PeepholeSubstituteAlternateSyntax.java,com.google.javascript.jscomp.PeepholeSubstituteAlternateSyntax
Closure,133,src/com/google/javascript/jscomp/parsing/JsDocInfoParser.java,com.google.javascript.jscomp.parsing.JsDocInfoParser
Lang,1,src/main/java/org/apache/commons/lang3/math/NumberUtils.java,org.apache.commons.lang3.math.NumberUtils
Lang,2,src/main/java/org/apache/commons/lang3/LocaleUtils.java,org.apache.commons.lang3.LocaleUtils
Lang,3,src/main/java/org/apache/commons/lang3/math/NumberUtils.java,org.apache.commons.lang3.math.NumberUtils
Lang,4,src/main/java/org/apache/commons/lang3/text/translate/LookupTranslator.java,org.apache.commons.lang3.text.translate.LookupTranslator
Lang,5,src/main/java/org/apache/commons/lang3/LocaleUtils.java,org.apache.commons.lang3.LocaleUtils
Lang,6,src/main/java/org/apache/commons/lang3/text/translate/CharSequenceTranslator.java,org.apache.commons.lang3.text.translate.CharSequenceTranslator
Lang,7,src/main/java/org/apache/commons/lang3/math/NumberUtils.java,org.apache.commons.lang3.math.NumberUtils
Lang,8,src/main/java/org/apache/commons/lang3/time/FastDatePrinter.java,org.apache.commons.lang3.time.FastDatePrinter
Lang,9,src/main/java/org/apache/commons/lang3/time/FastDateParser.java,org.apache.commons.lang3.time.FastDateParser
Lang,10,src/main/java/org/apache/commons/lang3/time/FastDateParser.java,org.apache.commons.lang3.time.FastDateParser
Lang,11,src/main/java/org/apache/commons/lang3/RandomStringUtils.java,org.apache.commons.lang3.RandomStringUtils
Lang,12,src/main/java/org/apache/commons/lang3/RandomStringUtils.java,org.apache.commons.lang3.RandomStringUtils
Lang,13,src/main/java/org/apache/commons/lang3/SerializationUtils.java,org.apache.commons.lang3.SerializationUtils
Lang,14,src/main/java/org/apache/commons/lang3/StringUtils.java,org.apache.commons.lang3.StringUtils
Lang,15,src/main/java/org/apache/commons/lang3/reflect/TypeUtils.java,org.apache.commons.lang3.reflect.TypeUtils
Lang,16,src/main/java/org/apache/commons/lang3/math/NumberUtils.java,org.apache.commons.lang3.math.NumberUtils
Lang,17,src/main/java/org/apache/commons/lang3/text/translate/CharSequenceTranslator.java,org.apache.commons.lang3.text.translate.CharSequenceTranslator
Lang,18,src/main/java/org/apache/commons/lang3/time/FastDateFormat.java,org.apache.commons.lang3.time.FastDateFormat
Lang,19,src/main/java/org/apache/commons/lang3/text/translate/NumericEntityUnescaper.java,org.apache.commons.lang3.text.translate.NumericEntityUnescaper
Lang,20,src/main/java/org/apache/commons/lang3/StringUtils.java,org.apache.commons.lang3.StringUtils
Lang,21,src/main/java/org/apache/commons/lang3/time/DateUtils.java,org.apache.commons.lang3.time.DateUtils
Lang,22,src/main/java/org/apache/commons/lang3/math/Fraction.java,org.apache.commons.lang3.math.Fraction
Lang,23,src/main/java/org/apache/commons/lang3/text/ExtendedMessageFormat.java,org.apache.commons.lang3.text.ExtendedMessageFormat
Lang,24,src/main/java/org/apache/commons/lang3/math/NumberUtils.java,org.apache.commons.lang3.math.NumberUtils
Lang,25,src/main/java/org/apache/commons/lang3/text/translate/EntityArrays.java,org.apache.commons.lang3.text.translate.EntityArrays
Lang,26,src/main/java/org/apache/commons/lang3/time/FastDateFormat.java,org.apache.commons.lang3.time.FastDateFormat
Lang,27,src/main/java/org/apache/commons/lang3/math/NumberUtils.java,org.apache.commons.lang3.math.NumberUtils
Lang,28,src/main/java/org/apache/commons/lang3/text/translate/NumericEntityUnescaper.java,org.apache.commons.lang3.text.translate.NumericEntityUnescaper
Lang,29,src/main/java/org/apache/commons/lang3/SystemUtils.java,org.apache.commons.lang3.SystemUtils
Lang,30,src/main/java/org/apache/commons/lang3/StringUtils.java,org.apache.commons.lang3.StringUtils
Lang,31,src/main/java/org/apache/commons/lang3/StringUtils.java,org.apache.commons.lang3.StringUtils
Lang,32,src/main/java/org/apache/commons/lang3/builder/HashCodeBuilder.java,org.apache.commons.lang3.builder.HashCodeBuilder
Lang,33,src/main/java/org/apache/commons/lang3/ClassUtils.java,org.apache.commons.lang3.ClassUtils
Lang,34,src/main/java/org/apache/commons/lang3/builder/ToStringStyle.java,org.apache.commons.lang3.builder.ToStringStyle
Lang,35,src/main/java/org/apache/commons/lang3/ArrayUtils.java,org.apache.commons.lang3.ArrayUtils
Lang,36,src/java/org/apache/commons/lang3/math/NumberUtils.java,org.apache.commons.lang3.math.NumberUtils
Lang,37,src/java/org/apache/commons/lang3/ArrayUtils.java,org.apache.commons.lang3.ArrayUtils
Lang,38,src/java/org/apache/commons/lang3/time/FastDateFormat.java,org.apache.commons.lang3.time.FastDateFormat
Lang,39,src/java/org/apache/commons/lang3/StringUtils.java,org.apache.commons.lang3.StringUtils
Lang,40,src/java/org/apache/commons/lang/StringUtils.java,org.apache.commons.lang.StringUtils
Lang,41,src/java/org/apache/commons/lang/ClassUtils.java,org.apache.commons.lang.ClassUtils
Lang,42,src/java/org/apache/commons/lang/Entities.java,org.apache.commons.lang.Entities
Lang,43,src/java/org/apache/commons/lang/text/ExtendedMessageFormat.java,org.apache.commons.lang.text.ExtendedMessageFormat
Lang,44,src/java/org/apache/commons/lang/NumberUtils.java,org.apache.commons.lang.NumberUtils
Lang,45,src/java/org/apache/commons/lang/WordUtils.java,org.apache.commons.lang.WordUtils
Lang,46,src/java/org/apache/commons/lang/StringEscapeUtils.java,org.apache.commons.lang.StringEscapeUtils
Lang,47,src/java/org/apache/commons/lang/text/StrBuilder.java,org.apache.commons.lang.text.StrBuilder
Lang,48,src/java/org/apache/commons/lang/builder/EqualsBuilder.java,org.apache.commons.lang.builder.EqualsBuilder
Lang,49,src/java/org/apache/commons/lang/math/Fraction.java,org.apache.commons.lang.math.Fraction
Lang,50,src/java/org/apache/commons/lang/time/FastDateFormat.java,org.apache.commons.lang.time.FastDateFormat
Lang,51,src/java/org/apache/commons/lang/BooleanUtils.java,org.apache.commons.lang.BooleanUtils
Lang,52,src/java/org/apache/commons/lang/StringEscapeUtils.java,org.apache.commons.lang.StringEscapeUtils
Lang,53,src/java/org/apache/commons/lang/time/DateUtils.java,org.apache.commons.lang.time.DateUtils
Lang,54,src/java/org/apache/commons/lang/LocaleUtils.java,org.apache.commons.lang.LocaleUtils
Lang,55,src/java/org/apache/commons/lang/time/StopWatch.java,org.apache.commons.lang.time.StopWatch
Lang,56,src/java/org/apache/commons/lang/time/FastDateFormat.java,org.apache.commons.lang.time.FastDateFormat
Lang,57,src/java/org/apache/commons/lang/LocaleUtils.java,org.apache.commons.lang.LocaleUtils
Lang,58,src/java/org/apache/commons/lang/math/NumberUtils.java,org.apache.commons.lang.math.NumberUtils
Lang,59,src/java/org/apache/commons/lang/text/StrBuilder.java,org.apache.commons.lang.text.StrBuilder
Lang,60,src/java/org/apache/commons/lang/text/StrBuilder.java,org.apache.commons.lang.text.StrBuilder
Lang,61,src/java/org/apache/commons/lang/text/StrBuilder.java,org.apache.commons.lang.text.StrBuilder
Lang,62,src/java/org/apache/commons/lang/Entities.java,org.apache.commons.lang.Entities
Lang,63,src/java/org/apache/commons/lang/time/DurationFormatUtils.java,org.apache.commons.lang.time.DurationFormatUtils
Lang,64,src/java/org/apache/commons/lang/enums/ValuedEnum.java,org.apache.commons.lang.enums.ValuedEnum
Lang,65,src/java/org/apache/commons/lang/time/DateUtils.java,org.apache.commons.lang.time.DateUtils
Math,1,src/main/java/org/apache/commons/math3/fraction/Fraction.java,org.apache.commons.math3.fraction.Fraction
Math,1,src/main/java/org/apache/commons/math3/fraction/BigFraction.java,org.apache.commons.math3.fraction.BigFraction
Math,2,src/main/java/org/apache/commons/math3/distribution/HypergeometricDistribution.java,org.apache.commons.math3.distribution.HypergeometricDistribution
Math,3,src/main/java/org/apache/commons/math3/util/MathArrays.java,org.apache.commons.math3.util.MathArrays
Math,4,src/main/java/org/apache/commons/math3/geometry/euclidean/threed/SubLine.java,org.apache.commons.math3.geometry.euclidean.threed.SubLine
Math,4,src/main/java/org/apache/commons/math3/geometry/euclidean/twod/SubLine.java,org.apache.commons.math3.geometry.euclidean.twod.SubLine
Math,5,src/main/java/org/apache/commons/math3/complex/Complex.java,org.apache.commons.math3.complex.Complex
Math,6,src/main/java/org/apache/commons/math3/optim/nonlinear/scalar/noderiv/PowellOptimizer.java,org.apache.commons.math3.optim.nonlinear.scalar.noderiv.PowellOptimizer
Math,6,src/main/java/org/apache/commons/math3/optim/nonlinear/scalar/gradient/NonLinearConjugateGradientOptimizer.java,org.apache.commons.math3.optim.nonlinear.scalar.gradient.NonLinearConjugateGradientOptimizer
Math,6,src/main/java/org/apache/commons/math3/optim/nonlinear/scalar/noderiv/SimplexOptimizer.java,org.apache.commons.math3.optim.nonlinear.scalar.noderiv.SimplexOptimizer
Math,6,src/main/java/org/apache/commons/math3/optim/nonlinear/vector/jacobian/GaussNewtonOptimizer.java,org.apache.commons.math3.optim.nonlinear.vector.jacobian.GaussNewtonOptimizer
Math,6,src/main/java/org/apache/commons/math3/optim/nonlinear/scalar/noderiv/CMAESOptimizer.java,org.apache.commons.math3.optim.nonlinear.scalar.noderiv.CMAESOptimizer
Math,6,src/main/java/org/apache/commons/math3/optim/BaseOptimizer.java,org.apache.commons.math3.optim.BaseOptimizer
Math,6,src/main/java/org/apache/commons/math3/optim/nonlinear/vector/jacobian/LevenbergMarquardtOptimizer.java,org.apache.commons.math3.optim.nonlinear.vector.jacobian.LevenbergMarquardtOptimizer
Math,7,src/main/java/org/apache/commons/math3/ode/AbstractIntegrator.java,org.apache.commons.math3.ode.AbstractIntegrator
Math,8,src/main/java/org/apache/commons/math3/distribution/DiscreteDistribution.java,org.apache.commons.math3.distribution.DiscreteDistribution
Math,9,src/main/java/org/apache/commons/math3/geometry/euclidean/threed/Line.java,org.apache.commons.math3.geometry.euclidean.threed.Line
Math,10,src/main/java/org/apache/commons/math3/analysis/differentiation/DSCompiler.java,org.apache.commons.math3.analysis.differentiation.DSCompiler
Math,11,src/main/java/org/apache/commons/math3/distribution/MultivariateNormalDistribution.java,org.apache.commons.math3.distribution.MultivariateNormalDistribution
Math,12,src/main/java/org/apache/commons/math3/random/BitsStreamGenerator.java,org.apache.commons.math3.random.BitsStreamGenerator
Math,13,src/main/java/org/apache/commons/math3/optimization/general/AbstractLeastSquaresOptimizer.java,org.apache.commons.math3.optimization.general.AbstractLeastSquaresOptimizer
Math,14,src/main/java/org/apache/commons/math3/optim/nonlinear/vector/jacobian/AbstractLeastSquaresOptimizer.java,org.apache.commons.math3.optim.nonlinear.vector.jacobian.AbstractLeastSquaresOptimizer
Math,14,src/main/java/org/apache/commons/math3/optim/nonlinear/vector/Weight.java,org.apache.commons.math3.optim.nonlinear.vector.Weight
Math,15,src/main/java/org/apache/commons/math3/util/FastMath.java,org.apache.commons.math3.util.FastMath
Math,16,src/main/java/org/apache/commons/math3/util/FastMath.java,org.apache.commons.math3.util.FastMath
Math,17,src/main/java/org/apache/commons/math3/dfp/Dfp.java,org.apache.commons.math3.dfp.Dfp
Math,18,src/main/java/org/apache/commons/math3/optimization/direct/CMAESOptimizer.java,org.apache.commons.math3.optimization.direct.CMAESOptimizer
Math,19,src/main/java/org/apache/commons/math3/optimization/direct/CMAESOptimizer.java,org.apache.commons.math3.optimization.direct.CMAESOptimizer
Math,20,src/main/java/org/apache/commons/math3/optimization/direct/CMAESOptimizer.java,org.apache.commons.math3.optimization.direct.CMAESOptimizer
Math,21,src/main/java/org/apache/commons/math3/linear/RectangularCholeskyDecomposition.java,org.apache.commons.math3.linear.RectangularCholeskyDecomposition
Math,22,src/main/java/org/apache/commons/math3/distribution/UniformRealDistribution.java,org.apache.commons.math3.distribution.UniformRealDistribution
Math,22,src/main/java/org/apache/commons/math3/distribution/FDistribution.java,org.apache.commons.math3.distribution.FDistribution
Math,23,src/main/java/org/apache/commons/math3/optimization/univariate/BrentOptimizer.java,org.apache.commons.math3.optimization.univariate.BrentOptimizer
Math,24,src/main/java/org/apache/commons/math3/optimization/univariate/BrentOptimizer.java,org.apache.commons.math3.optimization.univariate.BrentOptimizer
Math,25,src/main/java/org/apache/commons/math3/optimization/fitting/HarmonicFitter.java,org.apache.commons.math3.optimization.fitting.HarmonicFitter
Math,26,src/main/java/org/apache/commons/math3/fraction/Fraction.java,org.apache.commons.math3.fraction.Fraction
Math,27,src/main/java/org/apache/commons/math3/fraction/Fraction.java,org.apache.commons.math3.fraction.Fraction
Math,28,src/main/java/org/apache/commons/math3/optimization/linear/SimplexSolver.java,org.apache.commons.math3.optimization.linear.SimplexSolver
Math,29,src/main/java/org/apache/commons/math3/linear/OpenMapRealVector.java,org.apache.commons.math3.linear.OpenMapRealVector
Math,30,src/main/java/org/apache/commons/math3/stat/inference/MannWhitneyUTest.java,org.apache.commons.math3.stat.inference.MannWhitneyUTest
Math,31,src/main/java/org/apache/commons/math3/util/ContinuedFraction.java,org.apache.commons.math3.util.ContinuedFraction
Math,32,src/main/java/org/apache/commons/math3/geometry/euclidean/twod/PolygonsSet.java,org.apache.commons.math3.geometry.euclidean.twod.PolygonsSet
Math,33,src/main/java/org/apache/commons/math3/optimization/linear/SimplexTableau.java,org.apache.commons.math3.optimization.linear.SimplexTableau
Math,34,src/main/java/org/apache/commons/math3/genetics/ListPopulation.java,org.apache.commons.math3.genetics.ListPopulation
Math,35,src/main/java/org/apache/commons/math3/genetics/ElitisticListPopulation.java,org.apache.commons.math3.genetics.ElitisticListPopulation
Math,36,src/main/java/org/apache/commons/math/fraction/BigFraction.java,org.apache.commons.math.fraction.BigFraction
Math,37,src/main/java/org/apache/commons/math/complex/Complex.java,org.apache.commons.math.complex.Complex
Math,38,src/main/java/org/apache/commons/math/optimization/direct/BOBYQAOptimizer.java,org.apache.commons.math.optimization.direct.BOBYQAOptimizer
Math,39,src/main/java/org/apache/commons/math/ode/nonstiff/EmbeddedRungeKuttaIntegrator.java,org.apache.commons.math.ode.nonstiff.EmbeddedRungeKuttaIntegrator
Math,40,src/main/java/org/apache/commons/math/analysis/solvers/BracketingNthOrderBrentSolver.java,org.apache.commons.math.analysis.solvers.BracketingNthOrderBrentSolver
Math,41,src/main/java/org/apache/commons/math/stat/descriptive/moment/Variance.java,org.apache.commons.math.stat.descriptive.moment.Variance
Math,42,src/main/java/org/apache/commons/math/optimization/linear/SimplexTableau.java,org.apache.commons.math.optimization.linear.SimplexTableau
Math,43,src/main/java/org/apache/commons/math/stat/descriptive/SummaryStatistics.java,org.apache.commons.math.stat.descriptive.SummaryStatistics
Math,44,src/main/java/org/apache/commons/math/ode/AbstractIntegrator.java,org.apache.commons.math.ode.AbstractIntegrator
Math,45,src/main/java/org/apache/commons/math/linear/OpenMapRealMatrix.java,org.apache.commons.math.linear.OpenMapRealMatrix
Math,46,src/main/java/org/apache/commons/math/complex/Complex.java,org.apache.commons.math.complex.Complex
Math,47,src/main/java/org/apache/commons/math/complex/Complex.java,org.apache.commons.math.complex.Complex
Math,48,src/main/java/org/apache/commons/math/analysis/solvers/BaseSecantSolver.java,org.apache.commons.math.analysis.solvers.BaseSecantSolver
Math,49,src/main/java/org/apache/commons/math/linear/OpenMapRealVector.java,org.apache.commons.math.linear.OpenMapRealVector
Math,50,src/main/java/org/apache/commons/math/analysis/solvers/BaseSecantSolver.java,org.apache.commons.math.analysis.solvers.BaseSecantSolver
Math,51,src/main/java/org/apache/commons/math/analysis/solvers/BaseSecantSolver.java,org.apache.commons.math.analysis.solvers.BaseSecantSolver
Math,52,src/main/java/org/apache/commons/math/geometry/euclidean/threed/Rotation.java,org.apache.commons.math.geometry.euclidean.threed.Rotation
Math,53,src/main/java/org/apache/commons/math/complex/Complex.java,org.apache.commons.math.complex.Complex
Math,54,src/main/java/org/apache/commons/math/dfp/Dfp.java,org.apache.commons.math.dfp.Dfp
Math,55,src/main/java/org/apache/commons/math/geometry/Vector3D.java,org.apache.commons.math.geometry.Vector3D
Math,56,src/main/java/org/apache/commons/math/util/MultidimensionalCounter.java,org.apache.commons.math.util.MultidimensionalCounter
Math,57,src/main/java/org/apache/commons/math/stat/clustering/KMeansPlusPlusClusterer.java,org.apache.commons.math.stat.clustering.KMeansPlusPlusClusterer
Math,58,src/main/java/org/apache/commons/math/optimization/fitting/GaussianFitter.java,org.apache.commons.math.optimization.fitting.GaussianFitter
Math,59,src/main/java/org/apache/commons/math/util/FastMath.java,org.apache.commons.math.util.FastMath
Math,60,src/main/java/org/apache/commons/math/distribution/NormalDistributionImpl.java,org.apache.commons.math.distribution.NormalDistributionImpl
Math,61,src/main/java/org/apache/commons/math/distribution/PoissonDistributionImpl.java,org.apache.commons.math.distribution.PoissonDistributionImpl
Math,62,src/main/java/org/apache/commons/math/optimization/univariate/MultiStartUnivariateRealOptimizer.java,org.apache.commons.math.optimization.univariate.MultiStartUnivariateRealOptimizer
Math,63,src/main/java/org/apache/commons/math/util/MathUtils.java,org.apache.commons.math.util.MathUtils
Math,64,src/main/java/org/apache/commons/math/optimization/general/LevenbergMarquardtOptimizer.java,org.apache.commons.math.optimization.general.LevenbergMarquardtOptimizer
Math,65,src/main/java/org/apache/commons/math/optimization/general/AbstractLeastSquaresOptimizer.java,org.apache.commons.math.optimization.general.AbstractLeastSquaresOptimizer
Math,66,src/main/java/org/apache/commons/math/optimization/univariate/BrentOptimizer.java,org.apache.commons.math.optimization.univariate.BrentOptimizer
Math,67,src/main/java/org/apache/commons/math/optimization/MultiStartUnivariateRealOptimizer.java,org.apache.commons.math.optimization.MultiStartUnivariateRealOptimizer
Math,68,src/main/java/org/apache/commons/math/optimization/general/LevenbergMarquardtOptimizer.java,org.apache.commons.math.optimization.general.LevenbergMarquardtOptimizer
Math,69,src/main/java/org/apache/commons/math/stat/correlation/PearsonsCorrelation.java,org.apache.commons.math.stat.correlation.PearsonsCorrelation
Math,70,src/main/java/org/apache/commons/math/analysis/solvers/BisectionSolver.java,org.apache.commons.math.analysis.solvers.BisectionSolver
Math,71,src/main/java/org/apache/commons/math/ode/nonstiff/RungeKuttaIntegrator.java,org.apache.commons.math.ode.nonstiff.RungeKuttaIntegrator
Math,71,src/main/java/org/apache/commons/math/ode/nonstiff/EmbeddedRungeKuttaIntegrator.java,org.apache.commons.math.ode.nonstiff.EmbeddedRungeKuttaIntegrator
Math,72,src/main/java/org/apache/commons/math/analysis/solvers/BrentSolver.java,org.apache.commons.math.analysis.solvers.BrentSolver
Math,73,src/main/java/org/apache/commons/math/analysis/solvers/BrentSolver.java,org.apache.commons.math.analysis.solvers.BrentSolver
Math,74,src/main/java/org/apache/commons/math/ode/nonstiff/EmbeddedRungeKuttaIntegrator.java,org.apache.commons.math.ode.nonstiff.EmbeddedRungeKuttaIntegrator
Math,75,src/main/java/org/apache/commons/math/stat/Frequency.java,org.apache.commons.math.stat.Frequency
Math,76,src/main/java/org/apache/commons/math/linear/SingularValueDecompositionImpl.java,org.apache.commons.math.linear.SingularValueDecompositionImpl
Math,77,src/main/java/org/apache/commons/math/linear/ArrayRealVector.java,org.apache.commons.math.linear.ArrayRealVector
Math,77,src/main/java/org/apache/commons/math/linear/OpenMapRealVector.java,org.apache.commons.math.linear.OpenMapRealVector
Math,78,src/main/java/org/apache/commons/math/ode/events/EventState.java,org.apache.commons.math.ode.events.EventState
Math,79,src/main/java/org/apache/commons/math/util/MathUtils.java,org.apache.commons.math.util.MathUtils
Math,80,src/main/java/org/apache/commons/math/linear/EigenDecompositionImpl.java,org.apache.commons.math.linear.EigenDecompositionImpl
Math,81,src/main/java/org/apache/commons/math/linear/EigenDecompositionImpl.java,org.apache.commons.math.linear.EigenDecompositionImpl
Math,82,src/main/java/org/apache/commons/math/optimization/linear/SimplexSolver.java,org.apache.commons.math.optimization.linear.SimplexSolver
Math,83,src/main/java/org/apache/commons/math/optimization/linear/SimplexTableau.java,org.apache.commons.math.optimization.linear.SimplexTableau
Math,84,src/main/java/org/apache/commons/math/optimization/direct/MultiDirectional.java,org.apache.commons.math.optimization.direct.MultiDirectional
Math,85,src/java/org/apache/commons/math/analysis/solvers/UnivariateRealSolverUtils.java,org.apache.commons.math.analysis.solvers.UnivariateRealSolverUtils
Math,86,src/java/org/apache/commons/math/linear/CholeskyDecompositionImpl.java,org.apache.commons.math.linear.CholeskyDecompositionImpl
Math,87,src/java/org/apache/commons/math/optimization/linear/SimplexTableau.java,org.apache.commons.math.optimization.linear.SimplexTableau
Math,88,src/java/org/apache/commons/math/optimization/linear/SimplexTableau.java,org.apache.commons.math.optimization.linear.SimplexTableau
Math,89,src/java/org/apache/commons/math/stat/Frequency.java,org.apache.commons.math.stat.Frequency
Math,90,src/java/org/apache/commons/math/stat/Frequency.java,org.apache.commons.math.stat.Frequency
Math,91,src/java/org/apache/commons/math/fraction/Fraction.java,org.apache.commons.math.fraction.Fraction
Math,92,src/java/org/apache/commons/math/util/MathUtils.java,org.apache.commons.math.util.MathUtils
Math,93,src/java/org/apache/commons/math/util/MathUtils.java,org.apache.commons.math.util.MathUtils
Math,94,src/java/org/apache/commons/math/util/MathUtils.java,org.apache.commons.math.util.MathUtils
Math,95,src/java/org/apache/commons/math/distribution/FDistributionImpl.java,org.apache.commons.math.distribution.FDistributionImpl
Math,96,src/java/org/apache/commons/math/complex/Complex.java,org.apache.commons.math.complex.Complex
Math,97,src/java/org/apache/commons/math/analysis/BrentSolver.java,org.apache.commons.math.analysis.BrentSolver
Math,98,src/java/org/apache/commons/math/linear/BigMatrixImpl.java,org.apache.commons.math.linear.BigMatrixImpl
Math,98,src/java/org/apache/commons/math/linear/RealMatrixImpl.java,org.apache.commons.math.linear.RealMatrixImpl
Math,99,src/java/org/apache/commons/math/util/MathUtils.java,org.apache.commons.math.util.MathUtils
Math,100,src/java/org/apache/commons/math/estimation/AbstractEstimator.java,org.apache.commons.math.estimation.AbstractEstimator
Math,101,src/java/org/apache/commons/math/complex/ComplexFormat.java,org.apache.commons.math.complex.ComplexFormat
Math,102,src/java/org/apache/commons/math/stat/inference/ChiSquareTestImpl.java,org.apache.commons.math.stat.inference.ChiSquareTestImpl
Math,103,src/java/org/apache/commons/math/distribution/NormalDistributionImpl.java,org.apache.commons.math.distribution.NormalDistributionImpl
Math,104,src/java/org/apache/commons/math/special/Gamma.java,org.apache.commons.math.special.Gamma
Math,105,src/java/org/apache/commons/math/stat/regression/SimpleRegression.java,org.apache.commons.math.stat.regression.SimpleRegression
Math,106,src/java/org/apache/commons/math/fraction/ProperFractionFormat.java,org.apache.commons.math.fraction.ProperFractionFormat
Mockito,1,src/org/mockito/internal/invocation/InvocationMatcher.java,org.mockito.internal.invocation.InvocationMatcher
Mockito,2,src/org/mockito/internal/util/Timer.java,org.mockito.internal.util.Timer
Mockito,3,src/org/mockito/internal/invocation/InvocationMatcher.java,org.mockito.internal.invocation.InvocationMatcher
Mockito,4,src/org/mockito/exceptions/Reporter.java,org.mockito.exceptions.Reporter
Mockito,5,src/org/mockito/internal/verification/VerificationOverTimeImpl.java,org.mockito.internal.verification.VerificationOverTimeImpl
Mockito,6,src/org/mockito/Matchers.java,org.mockito.Matchers
Mockito,7,src/org/mockito/internal/util/reflection/GenericMetadataSupport.java,org.mockito.internal.util.reflection.GenericMetadataSupport
Mockito,8,src/org/mockito/internal/util/reflection/GenericMetadataSupport.java,org.mockito.internal.util.reflection.GenericMetadataSupport
Mockito,9,src/org/mockito/internal/stubbing/answers/CallsRealMethods.java,org.mockito.internal.stubbing.answers.CallsRealMethods
Mockito,10,src/org/mockito/internal/stubbing/defaultanswers/ReturnsDeepStubs.java,org.mockito.internal.stubbing.defaultanswers.ReturnsDeepStubs
Mockito,11,src/org/mockito/internal/creation/DelegatingMethod.java,org.mockito.internal.creation.DelegatingMethod
Mockito,12,src/org/mockito/internal/util/reflection/GenericMaster.java,org.mockito.internal.util.reflection.GenericMaster
Mockito,13,src/org/mockito/internal/MockHandler.java,org.mockito.internal.MockHandler
Mockito,14,src/org/mockito/internal/MockHandler.java,org.mockito.internal.MockHandler
Mockito,14,src/org/mockito/internal/MockitoCore.java,org.mockito.internal.MockitoCore
Mockito,15,src/org/mockito/internal/configuration/injection/FinalMockCandidateFilter.java,org.mockito.internal.configuration.injection.FinalMockCandidateFilter
Mockito,16,src/org/mockito/Mockito.java,org.mockito.Mockito
Mockito,16,src/org/mockito/internal/MockitoCore.java,org.mockito.internal.MockitoCore
Mockito,17,src/org/mockito/internal/creation/MockSettingsImpl.java,org.mockito.internal.creation.MockSettingsImpl
Mockito,17,src/org/mockito/internal/util/MockUtil.java,org.mockito.internal.util.MockUtil
Mockito,18,src/org/mockito/internal/stubbing/defaultanswers/ReturnsEmptyValues.java,org.mockito.internal.stubbing.defaultanswers.ReturnsEmptyValues
Mockito,19,src/org/mockito/internal/configuration/injection/PropertyAndSetterInjection.java,org.mockito.internal.configuration.injection.PropertyAndSetterInjection
Mockito,19,src/org/mockito/internal/configuration/injection/filter/FinalMockCandidateFilter.java,org.mockito.internal.configuration.injection.filter.FinalMockCandidateFilter
Mockito,19,src/org/mockito/internal/configuration/injection/filter/MockCandidateFilter.java,org.mockito.internal.configuration.injection.filter.MockCandidateFilter
Mockito,19,src/org/mockito/internal/configuration/injection/filter/NameBasedCandidateFilter.java,org.mockito.internal.configuration.injection.filter.NameBasedCandidateFilter
Mockito,19,src/org/mockito/internal/configuration/injection/filter/TypeBasedCandidateFilter.java,org.mockito.internal.configuration.injection.filter.TypeBasedCandidateFilter
Mockito,20,src/org/mockito/internal/creation/bytebuddy/ByteBuddyMockMaker.java,org.mockito.internal.creation.bytebuddy.ByteBuddyMockMaker
Mockito,21,src/org/mockito/internal/creation/instance/ConstructorInstantiator.java,org.mockito.internal.creation.instance.ConstructorInstantiator
Mockito,22,src/org/mockito/internal/matchers/Equality.java,org.mockito.internal.matchers.Equality
Mockito,23,src/org/mockito/internal/stubbing/defaultanswers/ReturnsDeepStubs.java,org.mockito.internal.stubbing.defaultanswers.ReturnsDeepStubs
Mockito,24,src/org/mockito/internal/stubbing/defaultanswers/ReturnsEmptyValues.java,org.mockito.internal.stubbing.defaultanswers.ReturnsEmptyValues
Mockito,25,src/org/mockito/internal/stubbing/defaultanswers/ReturnsDeepStubs.java,org.mockito.internal.stubbing.defaultanswers.ReturnsDeepStubs
Mockito,26,src/org/mockito/internal/util/Primitives.java,org.mockito.internal.util.Primitives
Mockito,27,src/org/mockito/internal/util/MockUtil.java,org.mockito.internal.util.MockUtil
Mockito,28,src/org/mockito/internal/configuration/DefaultInjectionEngine.java,org.mockito.internal.configuration.DefaultInjectionEngine
Mockito,29,src/org/mockito/internal/matchers/Same.java,org.mockito.internal.matchers.Same
Mockito,30,src/org/mockito/exceptions/Reporter.java,org.mockito.exceptions.Reporter
Mockito,30,src/org/mockito/internal/stubbing/defaultanswers/ReturnsSmartNulls.java,org.mockito.internal.stubbing.defaultanswers.ReturnsSmartNulls
Mockito,31,src/org/mockito/internal/stubbing/defaultanswers/ReturnsSmartNulls.java,org.mockito.internal.stubbing.defaultanswers.ReturnsSmartNulls
Mockito,32,src/org/mockito/internal/configuration/SpyAnnotationEngine.java,org.mockito.internal.configuration.SpyAnnotationEngine
Mockito,33,src/org/mockito/internal/invocation/InvocationMatcher.java,org.mockito.internal.invocation.InvocationMatcher
Mockito,34,src/org/mockito/internal/invocation/InvocationMatcher.java,org.mockito.internal.invocation.InvocationMatcher
Mockito,35,src/org/mockito/Matchers.java,org.mockito.Matchers
Mockito,36,src/org/mockito/internal/invocation/Invocation.java,org.mockito.internal.invocation.Invocation
Mockito,37,src/org/mockito/internal/stubbing/answers/AnswersValidator.java,org.mockito.internal.stubbing.answers.AnswersValidator
Mockito,38,src/org/mockito/internal/verification/argumentmatching/ArgumentMatchingTool.java,org.mockito.internal.verification.argumentmatching.ArgumentMatchingTool
Time,1,src/main/java/org/joda/time/Partial.java,org.joda.time.Partial
Time,1,src/main/java/org/joda/time/field/UnsupportedDurationField.java,org.joda.time.field.UnsupportedDurationField
Time,2,src/main/java/org/joda/time/Partial.java,org.joda.time.Partial
Time,2,src/main/java/org/joda/time/field/UnsupportedDurationField.java,org.joda.time.field.UnsupportedDurationField
Time,3,src/main/java/org/joda/time/MutableDateTime.java,org.joda.time.MutableDateTime
Time,4,src/main/java/org/joda/time/Partial.java,org.joda.time.Partial
Time,5,src/main/java/org/joda/time/Period.java,org.joda.time.Period
Time,6,src/main/java/org/joda/time/chrono/GJChronology.java,org.joda.time.chrono.GJChronology
Time,7,src/main/java/org/joda/time/format/DateTimeFormatter.java,org.joda.time.format.DateTimeFormatter
Time,8,src/main/java/org/joda/time/DateTimeZone.java,org.joda.time.DateTimeZone
Time,9,src/main/java/org/joda/time/DateTimeZone.java,org.joda.time.DateTimeZone
Time,10,src/main/java/org/joda/time/base/BaseSingleFieldPeriod.java,org.joda.time.base.BaseSingleFieldPeriod
Time,11,src/main/java/org/joda/time/tz/ZoneInfoCompiler.java,org.joda.time.tz.ZoneInfoCompiler
Time,12,src/main/java/org/joda/time/LocalDate.java,org.joda.time.LocalDate
Time,12,src/main/java/org/joda/time/LocalDateTime.java,org.joda.time.LocalDateTime
Time,13,src/main/java/org/joda/time/format/PeriodFormatterBuilder.java,org.joda.time.format.PeriodFormatterBuilder
Time,14,src/main/java/org/joda/time/chrono/BasicMonthOfYearDateTimeField.java,org.joda.time.chrono.BasicMonthOfYearDateTimeField
Time,15,src/main/java/org/joda/time/field/FieldUtils.java,org.joda.time.field.FieldUtils
Time,16,src/main/java/org/joda/time/format/DateTimeFormatter.java,org.joda.time.format.DateTimeFormatter
Time,17,src/main/java/org/joda/time/DateTimeZone.java,org.joda.time.DateTimeZone
Time,18,src/main/java/org/joda/time/chrono/GJChronology.java,org.joda.time.chrono.GJChronology
Time,19,src/main/java/org/joda/time/DateTimeZone.java,org.joda.time.DateTimeZone
Time,20,src/main/java/org/joda/time/format/DateTimeFormatterBuilder.java,org.joda.time.format.DateTimeFormatterBuilder
Time,21,src/main/java/org/joda/time/tz/DefaultNameProvider.java,org.joda.time.tz.DefaultNameProvider
Time,22,src/main/java/org/joda/time/base/BasePeriod.java,org.joda.time.base.BasePeriod
Time,23,src/main/java/org/joda/time/DateTimeZone.java,org.joda.time.DateTimeZone
Time,24,src/main/java/org/joda/time/format/DateTimeParserBucket.java,org.joda.time.format.DateTimeParserBucket
Time,25,src/main/java/org/joda/time/DateTimeZone.java,org.joda.time.DateTimeZone
Time,26,src/main/java/org/joda/time/chrono/ZonedChronology.java,org.joda.time.chrono.ZonedChronology
Time,27,src/main/java/org/joda/time/format/PeriodFormatterBuilder.java,org.joda.time.format.PeriodFormatterBuilder
